%YAML 1.1
%TAG !u! tag:unity3d.com,2011:
--- !u!1 &4933896774272692517
GameObject:
  m_ObjectHideFlags: 0
  m_CorrespondingSourceObject: {fileID: 0}
  m_PrefabInstance: {fileID: 0}
  m_PrefabAsset: {fileID: 0}
  serializedVersion: 6
  m_Component:
  - component: {fileID: 2452338666736237663}
  m_Layer: 0
  m_Name: GameObject
  m_TagString: Untagged
  m_Icon: {fileID: 0}
  m_NavMeshLayer: 0
  m_StaticEditorFlags: 0
  m_IsActive: 1
--- !u!4 &2452338666736237663
Transform:
  m_ObjectHideFlags: 0
  m_CorrespondingSourceObject: {fileID: 0}
  m_PrefabInstance: {fileID: 0}
  m_PrefabAsset: {fileID: 0}
  m_GameObject: {fileID: 4933896774272692517}
  m_LocalRotation: {x: -0.2993916, y: -0.4529563, z: 0.66537946, w: 0.51231384}
  m_LocalPosition: {x: 1.896376, y: 4.1255226, z: 0.27362895}
  m_LocalScale: {x: 0.50000006, y: 0.5000005, z: 0.5000013}
  m_Children: []
  m_Father: {fileID: 0}
  m_RootOrder: 0
  m_LocalEulerAnglesHint: {x: 0, y: 0, z: 0}
